{
	"schemaVersion": 1,
	"id": "warpcraft",
	"version": "${version}",
	"name": "Warpcraft",
	"description": "This is an example description! Tell everyone what your mod is about!",
	"authors": [
		"Splashing Crow"
	],
	"contact": {
		"homepage": "https://fabricmc.net/",
		"sources": "https://github.com/FabricMC/fabric-example-mod"
	},
	"license": "CC0-1.0",
	"icon": "assets/warpcraft/icon.png",
	"environment": "*",
	"entrypoints": {
		"main": [
			"splashingcrow.warpcraft.Warpcraft"
		],
		"client": [
			"splashingcrow.warpcraft.WarpcraftClient"
		],
		"fabric-datagen": [
			"splashingcrow.warpcraft.WarpcraftDataGenerator"
		]
	},
	"mixins": [
		"warpcraft.mixins.json",
		{
			"config": "warpcraft.client.mixins.json",
			"environment": "client"
		}
	],
	"depends": {
		"fabricloader": ">=0.15.11",
		"minecraft": "~1.20.1",
		"java": ">=17",
		"fabric-api": "*"
	},
	"suggests": {
		"another-mod": "*"
	}
}